[
    "phase4b_v1_bank_fixed_incomes",
    "phase4b_v1_credit_fixed_incomes",
    "phase4b_v1_exchanges",
    "phase4b_v1_funds",
    "phase4b_v1_treasure_titles",
    "phase4b_v1_variable_incomes"
]
