{
    "resource": {
        "consentUrl": "https://matls-api.mockbank.poc.raidiam.io/open-banking/payments/v3/consents",
        "brazilOrganizationId": "74e929d9-33b6-4d85-8ba7-c146c867a817",
        "brazilCpf": "76109277673",
        "brazilCpfOperational": "76109277673",
        "brazilCpfPaginationList": "76109277673"
    }
}
