{
    "payments_api_consents_rejection-reason_test-module_v4": {
        "pixPaymentAmount": "100.00",
        "browser": [
            {
                "match": "https://auth.mockbank.poc.raidiam.io/auth*",
                "tasks": [
                    {
                        "task": "Login",
                        "optional": true,
                        "match": "https://auth.mockbank.poc.raidiam.io/interaction*",
                        "commands": [
                            [
                                "text",
                                "name",
                                "username",
                                "ralph.bragg@gmail.com",
                                "optional"
                            ],
                            [
                                "text",
                                "name",
                                "password",
                                "P@ssword01",
                                "optional"
                            ],
                            [
                                "click",
                                "xpath",
                                "//button[contains(text(),\"Sign in\")]",
                                "optional"
                            ]
                        ]
                    },
                    {
                        "task": "Retry Login",
                        "optional": true,
                        "match": "https://auth.mockbank.poc.raidiam.io/interaction*",
                        "commands": [
                            [
                                "text",
                                "name",
                                "username",
                                "ralph.bragg@gmail.com",
                                "optional"
                            ],
                            [
                                "text",
                                "name",
                                "password",
                                "P@ssword01",
                                "optional"
                            ],
                            [
                                "click",
                                "xpath",
                                "//button[contains(text(),\"Sign in\")]",
                                "optional"
                            ]

                        ]
                    },
                    {
                        "task": "Reject Consent",
                        "optional": true,
                        "match": "https://auth.mockbank.poc.raidiam.io/interaction*",
                        "commands": [
                            [
                                "wait",
                                "xpath",
                                "//*",
                                10,
                                ".*Before sharing your data, we need to confirm some information:*",
                                "update-image-placeholder-optional"
                            ],
                            [
                                "click",
                                "xpath",
                                "//form/div[3]/div[1]/div[1]/a"
                            ]
                        ]
                    },
                    {
                        "task": "Verify Complete",
                        "match": "*/test/*/callback*",
                        "commands": [
                            [
                                "wait",
                                "id",
                                "submission_complete",
                                10
                            ]
                        ]
                    }
                ]
            }
        ]
    },
    "payments_api_invalid-token_test-module_v4": {
        "pixPaymentAmount": "100.00"
    },
    "payments_api_pixscheduling-patch-detentora_test-module_v4": {
        "pixPaymentAmount": "1400.00"
    },
    "payments_api_pixscheduling-patch-iniciadora_test-module_v4": {
        "pixPaymentAmount": "100.00"
    },
    "payments_api_pixscheduling-patch-unhappy_test-module_v4": {
        "pixPaymentAmount": "100.00"
    },
    "payments_api_pixscheduling-schd-accepted_test-module_v4": {
        "pixPaymentAmount": "100.00"
    },
    "payments_api_x-fapi_test-module_v4": {
        "pixPaymentAmount": "1400.00"
    },
    "payments_api_real-email-invalid-creditor-proxy_test-module_v4": {
        "pixPaymentAmount": "20201.00"
    },
    "payments_api_fake-email-proxy_test-module_v4": {
        "pixPaymentAmount": "20201.00"
    },
    "payments_api_consumed-consent_test-module_v4": {
        "pixPaymentAmount": "1336.00"
    },
    "payments_api_recurring-payments-custom-core_test-module_v4": {
        "pixPaymentAmount": "100.00"
    },
    "payments_api_recurring-payments-daily-core_test-module_v4": {
        "pixPaymentAmount": "100.00"
    },
    "payments_api_recurring-payments-large-batch_test-module_v4": {
        "pixPaymentAmount": "100.00"
    },
    "payments_api_recurring-payments-monthly-core_test-module_v4": {
        "pixPaymentAmount": "100.00"
    },
    "payments_api_recurring_payments_weekly_test-module_v4": {
        "pixPaymentAmount": "100.00"
    },
    "payments_api_recurring-payments-patch_test-module_v4": {
        "pixPaymentAmount": "100.00"
    },
    "payments_api_jti-reuse_test-module_v4": {
        "pixPaymentAmount": "100.00"
    },
    "payments_api_idempotency_test-module_v4": {
        "pixPaymentAmount": "100.00"
    }
}
