<svg width="204" height="60" viewBox="0 0 204 60" fill="none" xmlns="http://www.w3.org/2000/svg">
<path d="M190.672 17.988C190.672 20.2995 191.17 22.0695 192.173 23.3011C193.172 24.5327 194.633 25.1485 196.558 25.1485C197.631 25.1485 198.538 24.9783 199.275 24.641C200.011 24.3037 200.769 23.7467 201.543 22.9731L202.966 24.0964C202.518 24.5451 202.06 24.9442 201.599 25.2877C201.134 25.6343 200.649 25.9221 200.138 26.1542C199.624 26.3862 199.07 26.5564 198.47 26.6678C197.87 26.7761 197.195 26.8318 196.446 26.8318C193.946 26.8318 192.043 26.0459 190.731 24.4708C189.419 22.8957 188.763 20.5966 188.763 17.5733C188.763 14.6491 189.4 12.3747 190.675 10.7501C191.95 9.1255 193.723 8.31476 195.998 8.31476C198.272 8.31476 200.045 9.08837 201.32 10.6387C202.595 12.189 203.232 14.3489 203.232 17.1246V17.988H190.672ZM201.243 15.3453C201.218 15.0328 201.181 14.7574 201.131 14.5191C201.082 14.2808 201.02 14.0456 200.943 13.8074C200.868 13.5691 200.779 13.3154 200.679 13.04C200.28 12.09 199.661 11.3473 198.823 10.8089C197.984 10.2704 197.044 10.0043 195.991 10.0043C194.942 10.0043 193.999 10.2735 193.16 10.8089C192.321 11.3473 191.703 12.09 191.303 13.04C191.176 13.3154 191.084 13.5722 191.022 13.8074C190.96 14.0456 190.904 14.2839 190.852 14.5191C190.802 14.7574 190.765 15.0328 190.74 15.3453C190.715 15.6578 190.691 16.0261 190.666 16.45H201.314C201.292 16.0261 201.267 15.6578 201.243 15.3453Z" fill="#101820"/>
<path d="M107.435 10.2302V26.8349H105.529V10.2302H103.059V8.80987H105.529V4.92016C105.529 3.54933 105.897 2.41986 106.633 1.53485C107.37 0.649843 108.447 0.207336 109.867 0.207336H114.413V1.89071H110.204C109.257 1.89071 108.558 2.15374 108.109 2.6767C107.661 3.19966 107.435 3.93613 107.435 4.88303V8.80987H110.003V10.2302H107.435Z" fill="#101820"/>
<path d="M116.372 8.80988H114.466V26.8349H116.372V8.80988Z" fill="#101820"/>
<path d="M150.457 25.0278C149.538 25.8664 148.656 26.1604 147.724 26.4698C146.744 26.7483 145.704 26.8009 144.432 26.8009C143.086 26.8009 142.006 26.6771 141.198 26.4265C140.388 26.1789 139.698 25.7519 139.122 25.1547C138.698 24.7307 138.373 24.2078 138.15 23.5827C137.924 22.9607 137.813 22.3109 137.813 21.6363C137.813 19.9901 138.367 18.7152 139.478 17.8023C140.586 16.8925 142.127 16.4377 144.098 16.4377H149.931V14.417C149.931 12.9719 149.544 11.8734 148.77 11.1245C147.997 10.3757 146.688 10.0012 144.844 10.0012C143.572 10.0012 142.569 10.1745 141.833 10.5242C141.096 10.8739 140.443 11.4587 139.871 12.2818L138.488 11.0843C139.261 10.0136 140.146 9.28333 141.143 8.89653C142.139 8.50972 143.374 8.31787 144.844 8.31787C147.236 8.31787 148.999 8.82845 150.135 9.85271C151.268 10.8739 151.837 12.3344 151.837 14.2282V21.6146C151.76 22.7781 151.596 23.8055 150.457 25.0278ZM149.928 17.9756H144.317C141.251 17.9756 139.716 19.1855 139.716 21.6023C139.716 22.7998 140.091 23.6848 140.839 24.2573C141.588 24.8298 142.783 25.1175 144.429 25.1175C145.252 25.1175 146.041 25.0433 146.802 24.8947C147.564 24.7462 148.266 24.3594 148.916 23.7343C149.59 23.1123 149.925 21.9643 149.925 20.2933V17.9756H149.928Z" fill="#101820"/>
<path d="M185.241 25.3589C184.793 25.7209 184.338 26.0087 183.877 26.2191C183.416 26.4327 182.93 26.5812 182.419 26.6678C181.909 26.7545 181.339 26.7978 180.717 26.7978C179.495 26.7978 178.393 26.5843 177.406 26.1634C176.422 25.7395 175.587 25.1299 174.9 24.3315C174.213 23.5332 173.69 22.5615 173.328 21.4135C172.966 20.2654 172.786 18.9813 172.786 17.5609C172.786 16.1406 172.966 14.8564 173.328 13.7083C173.69 12.5634 174.213 11.5887 174.9 10.7903C175.587 9.99194 176.419 9.38233 177.406 8.95839C178.39 8.53445 179.495 8.32404 180.717 8.32404C181.339 8.32404 181.909 8.36735 182.419 8.454C182.93 8.54064 183.416 8.69227 183.877 8.90269C184.338 9.11311 184.793 9.4009 185.241 9.76295C185.69 10.125 186.163 10.5675 186.662 11.0905L185.353 12.288C184.579 11.4401 183.852 10.8491 183.165 10.5118C182.478 10.1745 181.664 10.0074 180.714 10.0074C179.69 10.0074 178.774 10.2085 177.966 10.6046C177.156 11.0038 176.478 11.601 175.927 12.3994C175.478 13.0492 175.16 13.764 174.974 14.55C174.788 15.336 174.692 16.3386 174.692 17.5609C174.692 18.7832 174.785 19.7858 174.974 20.5718C175.163 21.3578 175.478 22.0726 175.927 22.7224C176.475 23.5208 177.156 24.118 177.966 24.5172C178.777 24.9164 179.693 25.1144 180.714 25.1144C181.188 25.1144 181.624 25.0773 182.023 25.003C182.422 24.9288 182.803 24.805 183.165 24.6286C183.527 24.4553 183.889 24.217 184.248 23.9169C184.61 23.6167 184.978 23.2578 185.35 22.8307L186.659 24.0283C186.163 24.5574 185.69 24.9999 185.241 25.3589Z" fill="#101820"/>
<path d="M167.34 10.3045C166.143 9.15645 164.549 8.58398 162.553 8.58398C162.46 8.58398 162.37 8.59327 162.278 8.59636C162.185 8.59327 162.095 8.58398 162.002 8.58398C160.009 8.58398 158.413 9.15645 157.215 10.3045C155.968 11.502 155.346 13.173 155.346 15.3144V26.8319H157.252V15.6517C157.252 13.9064 157.676 12.5727 158.524 11.6506C159.372 10.7284 160.607 10.2674 162.225 10.2674C162.244 10.2674 162.259 10.2705 162.275 10.2705C162.293 10.2705 162.309 10.2674 162.324 10.2674C163.945 10.2674 165.177 10.7284 166.025 11.6506C166.873 12.5727 167.297 13.9064 167.297 15.6517V26.8319H169.203V15.3144C169.209 13.173 168.584 11.502 167.34 10.3045Z" fill="#101820"/>
<path d="M132.314 10.3045C131.117 9.15645 129.523 8.58398 127.527 8.58398C127.434 8.58398 127.345 8.59327 127.252 8.59636C127.159 8.59327 127.069 8.58398 126.976 8.58398C124.983 8.58398 123.387 9.15645 122.189 10.3045C120.942 11.502 120.32 13.173 120.32 15.3144V26.8319H122.226V15.6517C122.226 13.9064 122.65 12.5727 123.498 11.6506C124.346 10.7284 125.581 10.2674 127.199 10.2674C127.218 10.2674 127.233 10.2705 127.249 10.2705C127.267 10.2705 127.283 10.2674 127.298 10.2674C128.92 10.2674 130.151 10.7284 130.999 11.6506C131.847 12.5727 132.271 13.9064 132.271 15.6517V26.8319H134.177V15.3144C134.183 13.173 133.561 11.502 132.314 10.3045Z" fill="#101820"/>
<path d="M76.0573 17.2267H57.9548C58.2148 18.8234 58.9141 20.0921 60.0498 21.0359C61.1854 21.9798 62.6336 22.4501 64.3944 22.4501C66.4986 22.4501 68.3088 21.7136 69.822 20.2407L74.5688 22.4687C73.3837 24.149 71.9664 25.3898 70.3171 26.1944C68.6647 26.9989 66.7059 27.4012 64.4346 27.4012C60.9131 27.4012 58.0415 26.2903 55.8259 24.0685C53.6103 21.8467 52.5024 19.0617 52.5024 15.7197C52.5024 12.2942 53.6072 9.4473 55.8166 7.18527C58.026 4.92324 60.7955 3.79068 64.1251 3.79068C67.6621 3.79068 70.5368 4.92324 72.7524 7.18527C74.968 9.4504 76.0758 12.4396 76.0758 16.1529L76.0573 17.2267ZM70.4223 12.7893C70.051 11.536 69.3145 10.518 68.2191 9.73508C67.1236 8.95219 65.8518 8.5592 64.4036 8.5592C62.8317 8.5592 61.4546 8.99861 60.2695 9.88052C59.5237 10.4313 58.8367 11.3999 58.2024 12.7924H70.4223V12.7893Z" fill="#101820"/>
<path d="M79.7489 6.653H85.4612V6.64681C86.7578 5.55447 87.9306 4.79634 88.9827 4.36931C90.0348 3.94228 91.1117 3.72876 92.2133 3.72876C94.4691 3.72876 96.3846 4.51784 97.9596 6.09291C99.2841 7.4328 99.9432 9.41324 99.9432 12.0373V27.0855H94.2927V17.1153C94.2927 14.3984 94.1721 12.5943 93.9276 11.7C93.6831 10.8088 93.2592 10.1281 92.6527 9.66079C92.0462 9.19353 91.3004 8.96145 90.4092 8.96145C89.255 8.96145 88.2617 9.34825 87.4355 10.1219C86.6062 10.8955 86.0337 11.9661 85.7119 13.3308C85.5448 14.0425 85.4612 15.5804 85.4612 17.9508V27.0855H79.7489V6.653Z" fill="#101820"/>
<path d="M33.1158 6.89129V6.82321C34.1494 5.78967 35.2634 5.01606 36.464 4.49929C37.6646 3.98252 38.9457 3.72568 40.3135 3.72568C43.2841 3.72568 45.8092 4.84896 47.8886 7.09552C49.9681 9.34208 51.0078 12.223 51.0078 15.7383C51.0078 19.1298 49.9341 21.9643 47.7865 24.2449C45.639 26.5255 43.0923 27.6673 40.1495 27.6673C38.8374 27.6673 37.6182 27.4352 36.4857 26.9649C35.3562 26.4976 34.2329 25.7333 33.1158 24.6719V32.637H27.4437V6.88819H33.1158V6.89129ZM39.1221 9.00169C37.3212 9.00169 35.8296 9.61438 34.6445 10.8429C33.4593 12.0714 32.8652 13.6743 32.8652 15.6578C32.8652 17.6816 33.4593 19.3154 34.6445 20.5656C35.7956 21.7786 37.2345 22.4006 38.9643 22.4377C40.5332 22.4718 42.0835 21.9117 43.2253 20.8379C44.6209 19.5259 45.3172 17.8054 45.3172 15.6795C45.3172 13.7269 44.7323 12.1271 43.5595 10.8769C42.3867 9.62677 40.9076 9.00169 39.1221 9.00169Z" fill="#101820"/>
<path d="M23.6655 9.58345C22.6041 7.74226 21.1312 6.28478 19.2405 5.21101C17.5757 4.26411 15.8118 3.73497 13.949 3.62357V9.00788C15.4653 9.14403 16.7309 9.74436 17.752 10.8088C18.9186 12.0311 19.5035 13.6155 19.5035 15.5712C19.5035 17.5238 18.9094 19.1205 17.7211 20.3645C16.5328 21.6053 15.0444 22.2273 13.2558 22.2273C11.6189 22.2273 10.2449 21.7105 9.12786 20.6863L5.30933 24.5048C7.52494 26.5286 10.1552 27.5435 13.2032 27.5435C15.4219 27.5435 17.4519 27.0175 19.2931 25.9623C21.1528 24.8978 22.6165 23.4187 23.6872 21.5218C24.699 19.7301 25.2406 17.697 25.256 15.6392C25.2684 13.47 24.7393 11.4494 23.6655 9.58345Z" fill="#101820"/>
<path d="M9.03499 10.6325C10.0221 9.68557 11.2011 9.14405 12.5812 9.01099V0C9.06594 0.256838 5.73014 1.9464 3.39075 4.98822L9.03499 10.6325Z" fill="#147D96"/>
<path d="M7.08551 15.0204C7.16287 13.7455 7.52183 12.6346 8.15618 11.6846L2.4191 5.94751C0.432479 8.72012 -0.282335 12.2571 0.0982798 15.0204H7.08551Z" fill="#147D96"/>
<path d="M7.10419 16.385H0.0983887C0.633726 19.5754 2.42231 21.9519 4.34704 23.5301L8.22437 19.6527C7.58692 18.7337 7.21558 17.6444 7.10419 16.385Z" fill="#147D96"/>
<path d="M71.3906 60H64.0244V33.2812H83.21V36.6953H71.3906V44.9521H80.5195V48.3477H71.3906V60ZM100.911 60H94.1758L84.1934 33.2812H91.708L99.1113 54.7861L105.81 33.2812H110.374L100.911 60ZM120.969 60H113.603V33.2812H128.038C129.287 33.2812 130.481 33.4482 131.619 33.7822C132.77 34.1162 133.784 34.6234 134.662 35.3037C135.54 35.9717 136.239 36.819 136.759 37.8457C137.291 38.86 137.557 40.0537 137.557 41.4268C137.557 42.2926 137.433 43.109 137.186 43.876C136.938 44.6305 136.592 45.3232 136.146 45.9541C135.714 46.585 135.2 47.154 134.606 47.6611C134.013 48.1683 133.363 48.5951 132.658 48.9414C131.953 49.2878 131.205 49.5537 130.413 49.7393C129.634 49.9248 128.842 50.0176 128.038 50.0176H120.969V60ZM130.098 41.4268C130.098 39.7074 129.659 38.359 128.78 37.3818C127.914 36.3923 126.603 35.8975 124.847 35.8975H120.969V47.4941H124.847C125.787 47.4941 126.585 47.3457 127.24 47.0488C127.908 46.7396 128.452 46.3128 128.873 45.7686C129.294 45.2243 129.603 44.5872 129.801 43.8574C129.999 43.1152 130.098 42.305 130.098 41.4268Z" fill="#101820"/>
</svg>
